﻿
        #################################################################################
        #                                                                               #
        #            ###        ######           ###            ###              ###    #
        #            ###        ########         ###             ###            ###     #
        #            ###        ###   ###        ###              ###          ###      #
        #            ###        ###    ###       ###               ###        ###       #
        #   ###      ###        ###    ###       ###                ###      ###        #
        #   ####    ####        ###   ###        ###                 ###    ###         #
        #     #########         ########         ##############       ########          #
        #       #####           ######           ##############        ######           #
        #                                                                               #
        #################################################################################
        

#############
# Prérequis #
#############

Ce programme est compatible Linux, MacOS et Windows et ne dépend d'aucune bibliothèque graphique.
Assurez-vous que vous avez bien reçu le fichier de configuration (configuration.csv), sinon le programme utilisera les constantes
définies par défaut, qui ne sont pas optimales.

###############
# Compilation #
###############

Linux, Windows et MacOS :
Pour compiler le programme, assurez-vous que vous disposez de gcc et tapez la commande :
$ make

#################
# Lancer le jeu #
#################

Linux, Windows et MacOS :
Etant donné que ce programme adapte la taille de la fenêtre automatiquement, il est préférable de lancer le programme avec 
la console en mode fenêtré.
Pour lancer le programme, il suffit d'utiliser la commande suivante :
$ ./JDLV

/!\ Certains terminaux Linux peuvent avoir des problèmes à afficher ce programme en l'état a cause d'une incompatibilité avec 
certaines commandes VT100, notamment en ce qui concerne le redimensionnement de fenêtres.
Dans ce cas, il suffit de lancer le programme avec ces arguments :
$ ./JDLV --vgasafe

#########
# Jouer #
#########

Lorsque vous lancez le programme, vous arrivez à l'écran d'accueil. Il suffit d'appuyer sur une touche pour le passer.
Le premier écran vous demande de définir la taille de la carte. Si vous saisissez 50, la carte sera de 50x50 cases.

Ensuite, le programme vous demande combien de joueurs vont participer à la partie.
Le nombre de joueur est compris entre 0 et 4. Saisissez le nombre de joueurs souhaités.
Pour chaque joueur, il vous sera demandé de fournir un pseudo. Il ne doit pas faire plus de 10 caractères, sinon il sera tronqué.
Pareillement, tous les " " seront remplacés par des "_".

Vous devrez ensuite choisir si vous souhaitez une nouvelle carte (saisir 0), charger une carte existante (1) ou continuer 
une partie lancée précédemment (2).
Dans le cas où vous choisissez une nouvelle carte, vous avez par la suite la possibilité de l’enregistrer (0) ou non (1).

Chaque joueur peut se déplacer (0), pécher (1), construire un pont (3), etc. 
La position courante du joueur qui joue est signalée par un @ rouge. 
Pour pêcher un animal ou se déplacer sur la carte, il suffit d’utiliser les touches z (haut), q (gauche), s (bas) et d (droite) et
de valider avec la touche entree.
La légende sur le coté de la carte détaille à quoi correspondent les différents symboles, la couleur est là pour vous indiquer
si vous pouvez ou non pêcher les créatures de ce type. Si le symbole est rouge, vous ne pouvez pas le pêcher, si il est vert, vous 
pouvez le pêcher.

##############
# But du jeu #
##############

Le but du jeu est d'arriver jusqu'à la rive opposée à celle où vous avez commencé en construisant des ponts. Un pont coûte une unité.
Il faut donc pêcher des poissons afin de récolter des unités, chaque espèce de poisson rapportant un nombre différent d'unités.
Pour vous aider dans cette tâche, vous pouvez utiliser des objets comme le filet ou l'épuisette pour attrapper plus de poissons
en un coup, mais pour cela il faut avoir assez d'unités pour les acheter... De plus, si vous ne faites pas attention, certains
poissons peuvent vous manger !

##################
# Quitter le jeu #
##################

Pour quitter le jeu, il suffit de faire la combinaison de touches suivante :
Ctrl + C

###########
# CREDITS #
###########

Programme conçu par Clément Delbar et Quentin Laduguie
INSA Centre Val de Loire
Janvier 2015