0;0;12
1;0;12
2;0;12
3;0;12
4;0;12
5;0;12
6;0;12
7;0;12
8;0;12
9;0;12
10;0;12
11;0;12
12;0;12
13;0;12
14;0;12
15;0;12
16;0;12
17;0;12
18;0;12
19;0;12
20;0;12
21;0;12
22;0;12
23;0;12
24;0;12
25;0;12
26;0;12
27;0;12
28;0;12
29;0;12
30;0;12
31;0;12
32;0;12
33;0;12
34;0;12
35;0;12
36;0;12
37;0;12
38;0;12
39;0;12
40;0;12
41;0;12
42;0;12
43;0;12
44;0;12
45;0;12
46;0;12
47;0;12
48;0;12
49;0;12
0;1;14
1;1;4
2;1;3
3;1;2
4;1;7
5;1;4
6;1;7
7;1;7
8;1;9
9;1;10
10;1;6
11;1;6
12;1;7
13;1;10
14;1;6
15;1;7
16;1;8
17;1;5
18;1;3
19;1;2
20;1;1
21;1;4
22;1;3
23;1;5
24;1;3
25;1;4
26;1;10
27;1;4
28;1;1
29;1;7
30;1;4
31;1;3
32;1;4
33;1;3
34;1;4
35;1;2
36;1;6
37;1;7
38;1;7
39;1;8
40;1;2
41;1;7
42;1;2
43;1;2
44;1;8
45;1;9
46;1;1
47;1;2
48;1;2
49;1;14
0;2;14
1;2;7
2;2;6
3;2;4
4;2;2
5;2;10
6;2;5
7;2;10
8;2;3
9;2;3
10;2;7
11;2;7
12;2;2
13;2;2
14;2;9
15;2;8
16;2;3
17;2;2
18;2;4
19;2;10
20;2;10
21;2;3
22;2;8
23;2;10
24;2;5
25;2;9
26;2;4
27;2;3
28;2;9
29;2;2
30;2;9
31;2;5
32;2;9
33;2;9
34;2;8
35;2;10
36;2;4
37;2;8
38;2;3
39;2;9
40;2;6
41;2;6
42;2;4
43;2;5
44;2;10
45;2;10
46;2;7
47;2;7
48;2;7
49;2;14
0;3;14
1;3;5
2;3;9
3;3;5
4;3;6
5;3;1
6;3;3
7;3;2
8;3;1
9;3;1
10;3;7
11;3;2
12;3;1
13;3;3
14;3;6
15;3;1
16;3;2
17;3;1
18;3;2
19;3;2
20;3;10
21;3;8
22;3;1
23;3;4
24;3;2
25;3;4
26;3;7
27;3;2
28;3;5
29;3;9
30;3;1
31;3;3
32;3;2
33;3;9
34;3;7
35;3;8
36;3;8
37;3;10
38;3;6
39;3;4
40;3;4
41;3;2
42;3;3
43;3;2
44;3;2
45;3;8
46;3;10
47;3;7
48;3;3
49;3;14
0;4;14
1;4;8
2;4;5
3;4;8
4;4;2
5;4;6
6;4;3
7;4;10
8;4;8
9;4;4
10;4;9
11;4;3
12;4;6
13;4;3
14;4;2
15;4;5
16;4;3
17;4;2
18;4;7
19;4;2
20;4;3
21;4;8
22;4;8
23;4;7
24;4;8
25;4;10
26;4;10
27;4;6
28;4;5
29;4;2
30;4;10
31;4;5
32;4;7
33;4;10
34;4;4
35;4;6
36;4;4
37;4;2
38;4;8
39;4;2
40;4;6
41;4;1
42;4;2
43;4;1
44;4;6
45;4;7
46;4;5
47;4;2
48;4;8
49;4;14
0;5;14
1;5;3
2;5;1
3;5;8
4;5;10
5;5;5
6;5;7
7;5;8
8;5;1
9;5;1
10;5;3
11;5;10
12;5;4
13;5;6
14;5;7
15;5;3
16;5;2
17;5;8
18;5;4
19;5;3
20;5;9
21;5;4
22;5;7
23;5;1
24;5;2
25;5;5
26;5;1
27;5;7
28;5;1
29;5;7
30;5;1
31;5;7
32;5;2
33;5;4
34;5;8
35;5;3
36;5;7
37;5;10
38;5;1
39;5;1
40;5;1
41;5;4
42;5;1
43;5;2
44;5;10
45;5;2
46;5;8
47;5;7
48;5;2
49;5;14
0;6;14
1;6;9
2;6;10
3;6;2
4;6;1
5;6;3
6;6;4
7;6;10
8;6;7
9;6;3
10;6;4
11;6;2
12;6;3
13;6;7
14;6;2
15;6;2
16;6;2
17;6;9
18;6;5
19;6;4
20;6;7
21;6;1
22;6;4
23;6;2
24;6;4
25;6;5
26;6;4
27;6;10
28;6;2
29;6;3
30;6;4
31;6;3
32;6;4
33;6;4
34;6;10
35;6;7
36;6;2
37;6;9
38;6;9
39;6;9
40;6;7
41;6;8
42;6;2
43;6;5
44;6;4
45;6;6
46;6;4
47;6;6
48;6;10
49;6;14
0;7;14
1;7;3
2;7;7
3;7;5
4;7;7
5;7;7
6;7;3
7;7;1
8;7;7
9;7;2
10;7;1
11;7;2
12;7;8
13;7;8
14;7;3
15;7;10
16;7;7
17;7;7
18;7;2
19;7;1
20;7;10
21;7;7
22;7;10
23;7;3
24;7;3
25;7;9
26;7;8
27;7;9
28;7;1
29;7;1
30;7;4
31;7;3
32;7;1
33;7;4
34;7;2
35;7;5
36;7;5
37;7;2
38;7;2
39;7;2
40;7;5
41;7;7
42;7;4
43;7;2
44;7;9
45;7;5
46;7;9
47;7;3
48;7;7
49;7;14
0;8;14
1;8;9
2;8;8
3;8;10
4;8;2
5;8;3
6;8;5
7;8;10
8;8;8
9;8;7
10;8;7
11;8;5
12;8;10
13;8;9
14;8;6
15;8;3
16;8;10
17;8;5
18;8;10
19;8;3
20;8;3
21;8;7
22;8;10
23;8;7
24;8;10
25;8;2
26;8;7
27;8;10
28;8;3
29;8;9
30;8;1
31;8;3
32;8;2
33;8;5
34;8;3
35;8;7
36;8;2
37;8;1
38;8;5
39;8;2
40;8;10
41;8;1
42;8;7
43;8;4
44;8;3
45;8;6
46;8;4
47;8;4
48;8;7
49;8;14
0;9;14
1;9;4
2;9;1
3;9;7
4;9;3
5;9;1
6;9;2
7;9;6
8;9;10
9;9;3
10;9;8
11;9;10
12;9;1
13;9;6
14;9;7
15;9;10
16;9;8
17;9;5
18;9;4
19;9;2
20;9;8
21;9;5
22;9;2
23;9;6
24;9;1
25;9;5
26;9;10
27;9;7
28;9;10
29;9;5
30;9;2
31;9;2
32;9;5
33;9;7
34;9;2
35;9;10
36;9;2
37;9;7
38;9;6
39;9;7
40;9;8
41;9;7
42;9;2
43;9;1
44;9;1
45;9;2
46;9;2
47;9;4
48;9;2
49;9;14
0;10;14
1;10;9
2;10;5
3;10;4
4;10;8
5;10;4
6;10;1
7;10;1
8;10;3
9;10;1
10;10;10
11;10;10
12;10;2
13;10;3
14;10;6
15;10;9
16;10;1
17;10;6
18;10;7
19;10;3
20;10;7
21;10;3
22;10;5
23;10;7
24;10;3
25;10;2
26;10;5
27;10;7
28;10;4
29;10;4
30;10;3
31;10;7
32;10;3
33;10;2
34;10;10
35;10;7
36;10;1
37;10;7
38;10;10
39;10;10
40;10;5
41;10;7
42;10;8
43;10;8
44;10;10
45;10;8
46;10;5
47;10;5
48;10;5
49;10;14
0;11;14
1;11;5
2;11;7
3;11;2
4;11;5
5;11;5
6;11;10
7;11;1
8;11;7
9;11;5
10;11;9
11;11;2
12;11;2
13;11;1
14;11;2
15;11;1
16;11;4
17;11;8
18;11;10
19;11;1
20;11;6
21;11;7
22;11;2
23;11;2
24;11;3
25;11;1
26;11;2
27;11;7
28;11;2
29;11;6
30;11;4
31;11;3
32;11;5
33;11;7
34;11;4
35;11;9
36;11;5
37;11;10
38;11;9
39;11;3
40;11;3
41;11;9
42;11;1
43;11;1
44;11;3
45;11;6
46;11;4
47;11;4
48;11;1
49;11;14
0;12;14
1;12;10
2;12;2
3;12;10
4;12;2
5;12;1
6;12;2
7;12;8
8;12;4
9;12;5
10;12;2
11;12;3
12;12;4
13;12;2
14;12;5
15;12;10
16;12;3
17;12;3
18;12;9
19;12;2
20;12;1
21;12;7
22;12;8
23;12;10
24;12;5
25;12;9
26;12;6
27;12;3
28;12;5
29;12;2
30;12;4
31;12;7
32;12;3
33;12;5
34;12;5
35;12;1
36;12;1
37;12;6
38;12;4
39;12;2
40;12;6
41;12;2
42;12;4
43;12;2
44;12;10
45;12;2
46;12;9
47;12;2
48;12;2
49;12;14
0;13;14
1;13;10
2;13;10
3;13;4
4;13;2
5;13;7
6;13;8
7;13;10
8;13;2
9;13;2
10;13;9
11;13;10
12;13;10
13;13;3
14;13;1
15;13;6
16;13;5
17;13;3
18;13;10
19;13;2
20;13;10
21;13;3
22;13;1
23;13;4
24;13;7
25;13;10
26;13;2
27;13;7
28;13;8
29;13;5
30;13;3
31;13;2
32;13;4
33;13;6
34;13;10
35;13;3
36;13;5
37;13;3
38;13;10
39;13;2
40;13;7
41;13;7
42;13;5
43;13;10
44;13;6
45;13;2
46;13;3
47;13;6
48;13;3
49;13;14
0;14;14
1;14;5
2;14;8
3;14;7
4;14;5
5;14;9
6;14;7
7;14;1
8;14;7
9;14;2
10;14;2
11;14;5
12;14;2
13;14;8
14;14;5
15;14;2
16;14;3
17;14;10
18;14;1
19;14;4
20;14;2
21;14;2
22;14;10
23;14;9
24;14;1
25;14;7
26;14;2
27;14;7
28;14;3
29;14;6
30;14;3
31;14;7
32;14;8
33;14;5
34;14;5
35;14;5
36;14;3
37;14;9
38;14;9
39;14;7
40;14;3
41;14;10
42;14;2
43;14;3
44;14;2
45;14;3
46;14;10
47;14;7
48;14;9
49;14;14
0;15;14
1;15;3
2;15;2
3;15;2
4;15;6
5;15;10
6;15;5
7;15;8
8;15;7
9;15;8
10;15;5
11;15;4
12;15;6
13;15;10
14;15;9
15;15;2
16;15;7
17;15;2
18;15;10
19;15;2
20;15;2
21;15;3
22;15;10
23;15;7
24;15;2
25;15;8
26;15;5
27;15;7
28;15;10
29;15;2
30;15;3
31;15;2
32;15;10
33;15;7
34;15;2
35;15;4
36;15;8
37;15;1
38;15;1
39;15;2
40;15;7
41;15;10
42;15;3
43;15;5
44;15;7
45;15;1
46;15;9
47;15;9
48;15;5
49;15;14
0;16;14
1;16;2
2;16;5
3;16;7
4;16;7
5;16;2
6;16;7
7;16;4
8;16;1
9;16;10
10;16;4
11;16;6
12;16;2
13;16;5
14;16;4
15;16;5
16;16;8
17;16;8
18;16;6
19;16;3
20;16;3
21;16;3
22;16;1
23;16;8
24;16;3
25;16;8
26;16;1
27;16;5
28;16;2
29;16;9
30;16;1
31;16;1
32;16;5
33;16;6
34;16;5
35;16;7
36;16;1
37;16;10
38;16;5
39;16;2
40;16;1
41;16;5
42;16;10
43;16;10
44;16;7
45;16;7
46;16;6
47;16;3
48;16;6
49;16;14
0;17;14
1;17;9
2;17;7
3;17;7
4;17;9
5;17;4
6;17;3
7;17;5
8;17;2
9;17;5
10;17;2
11;17;3
12;17;2
13;17;8
14;17;2
15;17;3
16;17;10
17;17;2
18;17;3
19;17;6
20;17;9
21;17;6
22;17;5
23;17;2
24;17;2
25;17;1
26;17;4
27;17;8
28;17;5
29;17;5
30;17;5
31;17;4
32;17;9
33;17;7
34;17;3
35;17;2
36;17;10
37;17;2
38;17;2
39;17;7
40;17;3
41;17;3
42;17;2
43;17;9
44;17;1
45;17;1
46;17;10
47;17;3
48;17;7
49;17;14
0;18;14
1;18;2
2;18;2
3;18;9
4;18;4
5;18;9
6;18;7
7;18;4
8;18;3
9;18;8
10;18;9
11;18;7
12;18;9
13;18;2
14;18;8
15;18;8
16;18;10
17;18;3
18;18;4
19;18;8
20;18;3
21;18;4
22;18;2
23;18;3
24;18;10
25;18;5
26;18;1
27;18;5
28;18;2
29;18;1
30;18;8
31;18;5
32;18;2
33;18;2
34;18;7
35;18;3
36;18;10
37;18;9
38;18;2
39;18;7
40;18;2
41;18;7
42;18;10
43;18;1
44;18;2
45;18;5
46;18;4
47;18;5
48;18;10
49;18;14
0;19;14
1;19;2
2;19;4
3;19;9
4;19;1
5;19;6
6;19;2
7;19;3
8;19;9
9;19;3
10;19;9
11;19;7
12;19;3
13;19;7
14;19;2
15;19;3
16;19;6
17;19;2
18;19;2
19;19;2
20;19;10
21;19;2
22;19;2
23;19;2
24;19;6
25;19;2
26;19;8
27;19;9
28;19;3
29;19;10
30;19;7
31;19;3
32;19;6
33;19;10
34;19;1
35;19;6
36;19;4
37;19;2
38;19;5
39;19;4
40;19;9
41;19;1
42;19;7
43;19;3
44;19;7
45;19;2
46;19;10
47;19;7
48;19;2
49;19;14
0;20;14
1;20;5
2;20;5
3;20;5
4;20;2
5;20;10
6;20;7
7;20;2
8;20;8
9;20;4
10;20;7
11;20;4
12;20;3
13;20;10
14;20;8
15;20;4
16;20;4
17;20;5
18;20;10
19;20;4
20;20;7
21;20;10
22;20;9
23;20;5
24;20;2
25;20;8
26;20;4
27;20;6
28;20;5
29;20;2
30;20;5
31;20;2
32;20;2
33;20;6
34;20;2
35;20;2
36;20;2
37;20;7
38;20;5
39;20;2
40;20;10
41;20;2
42;20;1
43;20;7
44;20;4
45;20;2
46;20;5
47;20;4
48;20;7
49;20;14
0;21;14
1;21;2
2;21;2
3;21;2
4;21;2
5;21;2
6;21;1
7;21;6
8;21;4
9;21;3
10;21;6
11;21;5
12;21;2
13;21;2
14;21;2
15;21;1
16;21;6
17;21;2
18;21;3
19;21;2
20;21;2
21;21;2
22;21;4
23;21;5
24;21;8
25;21;3
26;21;5
27;21;3
28;21;7
29;21;9
30;21;5
31;21;1
32;21;3
33;21;1
34;21;5
35;21;1
36;21;3
37;21;1
38;21;1
39;21;2
40;21;10
41;21;9
42;21;4
43;21;10
44;21;2
45;21;2
46;21;3
47;21;2
48;21;8
49;21;14
0;22;14
1;22;7
2;22;2
3;22;9
4;22;4
5;22;2
6;22;2
7;22;7
8;22;1
9;22;4
10;22;2
11;22;3
12;22;7
13;22;5
14;22;6
15;22;4
16;22;4
17;22;2
18;22;5
19;22;2
20;22;2
21;22;5
22;22;7
23;22;2
24;22;3
25;22;2
26;22;7
27;22;3
28;22;3
29;22;2
30;22;5
31;22;2
32;22;10
33;22;3
34;22;4
35;22;4
36;22;10
37;22;4
38;22;2
39;22;5
40;22;2
41;22;7
42;22;7
43;22;10
44;22;3
45;22;3
46;22;4
47;22;4
48;22;4
49;22;14
0;23;14
1;23;2
2;23;2
3;23;9
4;23;1
5;23;3
6;23;2
7;23;5
8;23;2
9;23;10
10;23;7
11;23;5
12;23;3
13;23;2
14;23;2
15;23;3
16;23;1
17;23;10
18;23;2
19;23;9
20;23;1
21;23;8
22;23;7
23;23;5
24;23;5
25;23;5
26;23;4
27;23;4
28;23;10
29;23;7
30;23;8
31;23;8
32;23;3
33;23;3
34;23;1
35;23;6
36;23;5
37;23;2
38;23;7
39;23;10
40;23;2
41;23;2
42;23;4
43;23;5
44;23;6
45;23;4
46;23;2
47;23;2
48;23;3
49;23;14
0;24;14
1;24;8
2;24;2
3;24;5
4;24;2
5;24;9
6;24;2
7;24;3
8;24;1
9;24;6
10;24;3
11;24;9
12;24;7
13;24;1
14;24;2
15;24;7
16;24;10
17;24;2
18;24;8
19;24;7
20;24;4
21;24;9
22;24;6
23;24;1
24;24;1
25;24;1
26;24;2
27;24;4
28;24;2
29;24;5
30;24;3
31;24;2
32;24;2
33;24;4
34;24;2
35;24;1
36;24;4
37;24;8
38;24;7
39;24;10
40;24;2
41;24;2
42;24;5
43;24;3
44;24;6
45;24;4
46;24;7
47;24;2
48;24;4
49;24;14
0;25;14
1;25;3
2;25;5
3;25;3
4;25;4
5;25;3
6;25;8
7;25;2
8;25;2
9;25;5
10;25;10
11;25;10
12;25;6
13;25;2
14;25;3
15;25;5
16;25;4
17;25;3
18;25;3
19;25;10
20;25;5
21;25;9
22;25;1
23;25;2
24;25;3
25;25;7
26;25;9
27;25;1
28;25;2
29;25;6
30;25;4
31;25;3
32;25;2
33;25;5
34;25;6
35;25;4
36;25;2
37;25;4
38;25;2
39;25;2
40;25;4
41;25;5
42;25;6
43;25;7
44;25;2
45;25;1
46;25;5
47;25;5
48;25;2
49;25;14
0;26;14
1;26;4
2;26;3
3;26;3
4;26;2
5;26;2
6;26;10
7;26;5
8;26;2
9;26;3
10;26;2
11;26;8
12;26;1
13;26;9
14;26;7
15;26;1
16;26;5
17;26;7
18;26;9
19;26;6
20;26;5
21;26;8
22;26;1
23;26;3
24;26;2
25;26;7
26;26;2
27;26;9
28;26;3
29;26;3
30;26;3
31;26;5
32;26;7
33;26;2
34;26;10
35;26;3
36;26;9
37;26;9
38;26;2
39;26;10
40;26;8
41;26;6
42;26;2
43;26;9
44;26;4
45;26;2
46;26;7
47;26;4
48;26;3
49;26;14
0;27;14
1;27;2
2;27;2
3;27;4
4;27;1
5;27;5
6;27;2
7;27;3
8;27;7
9;27;1
10;27;6
11;27;2
12;27;3
13;27;5
14;27;6
15;27;2
16;27;3
17;27;8
18;27;2
19;27;1
20;27;5
21;27;5
22;27;4
23;27;2
24;27;8
25;27;5
26;27;8
27;27;7
28;27;8
29;27;6
30;27;2
31;27;10
32;27;6
33;27;3
34;27;6
35;27;2
36;27;10
37;27;2
38;27;3
39;27;3
40;27;3
41;27;5
42;27;7
43;27;3
44;27;7
45;27;6
46;27;3
47;27;3
48;27;5
49;27;14
0;28;14
1;28;2
2;28;1
3;28;5
4;28;2
5;28;7
6;28;6
7;28;2
8;28;5
9;28;4
10;28;2
11;28;5
12;28;3
13;28;2
14;28;8
15;28;4
16;28;5
17;28;2
18;28;7
19;28;5
20;28;5
21;28;3
22;28;2
23;28;2
24;28;2
25;28;2
26;28;2
27;28;9
28;28;4
29;28;8
30;28;3
31;28;5
32;28;7
33;28;5
34;28;10
35;28;5
36;28;2
37;28;8
38;28;10
39;28;3
40;28;2
41;28;10
42;28;2
43;28;3
44;28;9
45;28;1
46;28;10
47;28;3
48;28;7
49;28;14
0;29;14
1;29;7
2;29;5
3;29;6
4;29;7
5;29;2
6;29;3
7;29;2
8;29;3
9;29;1
10;29;4
11;29;2
12;29;9
13;29;5
14;29;2
15;29;4
16;29;5
17;29;2
18;29;3
19;29;6
20;29;4
21;29;10
22;29;7
23;29;7
24;29;7
25;29;3
26;29;5
27;29;5
28;29;7
29;29;6
30;29;6
31;29;6
32;29;5
33;29;2
34;29;6
35;29;3
36;29;2
37;29;4
38;29;7
39;29;2
40;29;3
41;29;3
42;29;3
43;29;8
44;29;2
45;29;9
46;29;7
47;29;8
48;29;3
49;29;14
0;30;14
1;30;10
2;30;3
3;30;9
4;30;9
5;30;2
6;30;4
7;30;5
8;30;8
9;30;7
10;30;1
11;30;7
12;30;10
13;30;7
14;30;9
15;30;1
16;30;2
17;30;7
18;30;2
19;30;1
20;30;1
21;30;3
22;30;4
23;30;2
24;30;6
25;30;2
26;30;3
27;30;6
28;30;1
29;30;4
30;30;2
31;30;2
32;30;3
33;30;2
34;30;7
35;30;10
36;30;5
37;30;5
38;30;2
39;30;3
40;30;2
41;30;2
42;30;8
43;30;1
44;30;3
45;30;3
46;30;2
47;30;2
48;30;2
49;30;14
0;31;14
1;31;5
2;31;8
3;31;10
4;31;3
5;31;3
6;31;7
7;31;1
8;31;5
9;31;10
10;31;9
11;31;4
12;31;2
13;31;5
14;31;2
15;31;7
16;31;5
17;31;2
18;31;10
19;31;2
20;31;6
21;31;7
22;31;6
23;31;10
24;31;6
25;31;4
26;31;3
27;31;10
28;31;1
29;31;3
30;31;10
31;31;2
32;31;1
33;31;3
34;31;2
35;31;2
36;31;7
37;31;6
38;31;2
39;31;2
40;31;9
41;31;10
42;31;2
43;31;2
44;31;5
45;31;9
46;31;2
47;31;1
48;31;5
49;31;14
0;32;14
1;32;7
2;32;7
3;32;4
4;32;9
5;32;1
6;32;3
7;32;2
8;32;2
9;32;4
10;32;9
11;32;9
12;32;2
13;32;2
14;32;2
15;32;3
16;32;2
17;32;2
18;32;4
19;32;5
20;32;2
21;32;7
22;32;2
23;32;6
24;32;1
25;32;7
26;32;7
27;32;2
28;32;3
29;32;10
30;32;4
31;32;3
32;32;2
33;32;4
34;32;7
35;32;2
36;32;7
37;32;2
38;32;2
39;32;1
40;32;2
41;32;2
42;32;1
43;32;2
44;32;4
45;32;2
46;32;2
47;32;1
48;32;2
49;32;14
0;33;14
1;33;2
2;33;2
3;33;3
4;33;6
5;33;2
6;33;10
7;33;1
8;33;2
9;33;4
10;33;4
11;33;3
12;33;3
13;33;3
14;33;4
15;33;1
16;33;10
17;33;5
18;33;2
19;33;2
20;33;7
21;33;2
22;33;5
23;33;3
24;33;3
25;33;10
26;33;7
27;33;4
28;33;3
29;33;7
30;33;10
31;33;2
32;33;8
33;33;3
34;33;2
35;33;1
36;33;3
37;33;2
38;33;4
39;33;10
40;33;10
41;33;9
42;33;2
43;33;9
44;33;1
45;33;5
46;33;2
47;33;1
48;33;5
49;33;14
0;34;14
1;34;2
2;34;1
3;34;4
4;34;4
5;34;10
6;34;2
7;34;9
8;34;1
9;34;2
10;34;10
11;34;2
12;34;4
13;34;1
14;34;10
15;34;5
16;34;4
17;34;4
18;34;10
19;34;2
20;34;4
21;34;7
22;34;2
23;34;5
24;34;2
25;34;3
26;34;4
27;34;5
28;34;2
29;34;5
30;34;2
31;34;2
32;34;4
33;34;7
34;34;2
35;34;5
36;34;2
37;34;1
38;34;2
39;34;2
40;34;4
41;34;2
42;34;4
43;34;4
44;34;2
45;34;8
46;34;7
47;34;1
48;34;4
49;34;14
0;35;14
1;35;7
2;35;2
3;35;6
4;35;5
5;35;7
6;35;1
7;35;2
8;35;3
9;35;1
10;35;8
11;35;2
12;35;1
13;35;2
14;35;5
15;35;1
16;35;5
17;35;2
18;35;1
19;35;2
20;35;2
21;35;8
22;35;1
23;35;3
24;35;5
25;35;10
26;35;2
27;35;8
28;35;7
29;35;1
30;35;2
31;35;2
32;35;5
33;35;2
34;35;2
35;35;8
36;35;7
37;35;2
38;35;7
39;35;9
40;35;5
41;35;5
42;35;10
43;35;8
44;35;5
45;35;9
46;35;2
47;35;3
48;35;2
49;35;14
0;36;14
1;36;1
2;36;5
3;36;5
4;36;6
5;36;4
6;36;1
7;36;2
8;36;9
9;36;4
10;36;5
11;36;2
12;36;3
13;36;4
14;36;4
15;36;1
16;36;7
17;36;2
18;36;3
19;36;5
20;36;2
21;36;2
22;36;1
23;36;4
24;36;2
25;36;1
26;36;2
27;36;2
28;36;6
29;36;1
30;36;2
31;36;1
32;36;10
33;36;6
34;36;3
35;36;4
36;36;7
37;36;4
38;36;9
39;36;3
40;36;2
41;36;4
42;36;2
43;36;2
44;36;6
45;36;2
46;36;2
47;36;2
48;36;2
49;36;14
0;37;14
1;37;8
2;37;4
3;37;7
4;37;4
5;37;5
6;37;2
7;37;9
8;37;6
9;37;10
10;37;3
11;37;7
12;37;10
13;37;2
14;37;1
15;37;4
16;37;4
17;37;9
18;37;3
19;37;4
20;37;2
21;37;2
22;37;1
23;37;4
24;37;2
25;37;10
26;37;2
27;37;6
28;37;4
29;37;7
30;37;3
31;37;10
32;37;6
33;37;3
34;37;5
35;37;2
36;37;2
37;37;8
38;37;2
39;37;1
40;37;2
41;37;2
42;37;2
43;37;9
44;37;2
45;37;7
46;37;3
47;37;1
48;37;2
49;37;14
0;38;14
1;38;3
2;38;2
3;38;3
4;38;7
5;38;5
6;38;1
7;38;3
8;38;2
9;38;2
10;38;4
11;38;1
12;38;2
13;38;4
14;38;3
15;38;8
16;38;8
17;38;5
18;38;9
19;38;2
20;38;6
21;38;2
22;38;7
23;38;2
24;38;6
25;38;3
26;38;5
27;38;10
28;38;9
29;38;3
30;38;7
31;38;2
32;38;7
33;38;5
34;38;1
35;38;2
36;38;2
37;38;1
38;38;5
39;38;2
40;38;10
41;38;1
42;38;1
43;38;1
44;38;5
45;38;5
46;38;4
47;38;3
48;38;2
49;38;14
0;39;14
1;39;2
2;39;2
3;39;2
4;39;3
5;39;2
6;39;3
7;39;2
8;39;1
9;39;5
10;39;4
11;39;8
12;39;4
13;39;3
14;39;3
15;39;5
16;39;4
17;39;7
18;39;9
19;39;1
20;39;4
21;39;4
22;39;1
23;39;7
24;39;2
25;39;5
26;39;7
27;39;3
28;39;2
29;39;1
30;39;10
31;39;6
32;39;3
33;39;7
34;39;1
35;39;4
36;39;3
37;39;2
38;39;5
39;39;5
40;39;4
41;39;1
42;39;4
43;39;2
44;39;5
45;39;4
46;39;2
47;39;3
48;39;2
49;39;14
0;40;14
1;40;2
2;40;2
3;40;2
4;40;4
5;40;7
6;40;6
7;40;2
8;40;4
9;40;4
10;40;10
11;40;5
12;40;7
13;40;2
14;40;4
15;40;6
16;40;1
17;40;3
18;40;6
19;40;2
20;40;2
21;40;7
22;40;1
23;40;2
24;40;1
25;40;2
26;40;4
27;40;1
28;40;2
29;40;2
30;40;2
31;40;3
32;40;2
33;40;2
34;40;10
35;40;8
36;40;3
37;40;1
38;40;3
39;40;2
40;40;2
41;40;2
42;40;9
43;40;2
44;40;1
45;40;2
46;40;2
47;40;1
48;40;4
49;40;14
0;41;14
1;41;7
2;41;6
3;41;10
4;41;2
5;41;2
6;41;1
7;41;4
8;41;1
9;41;2
10;41;2
11;41;2
12;41;7
13;41;5
14;41;2
15;41;1
16;41;8
17;41;2
18;41;3
19;41;3
20;41;7
21;41;1
22;41;5
23;41;10
24;41;3
25;41;1
26;41;4
27;41;8
28;41;2
29;41;3
30;41;2
31;41;2
32;41;8
33;41;2
34;41;9
35;41;2
36;41;10
37;41;10
38;41;5
39;41;6
40;41;4
41;41;2
42;41;1
43;41;4
44;41;4
45;41;2
46;41;4
47;41;4
48;41;2
49;41;14
0;42;14
1;42;10
2;42;1
3;42;10
4;42;2
5;42;3
6;42;1
7;42;3
8;42;3
9;42;2
10;42;6
11;42;5
12;42;9
13;42;2
14;42;2
15;42;3
16;42;2
17;42;5
18;42;10
19;42;4
20;42;1
21;42;9
22;42;2
23;42;3
24;42;2
25;42;2
26;42;4
27;42;5
28;42;10
29;42;3
30;42;2
31;42;2
32;42;5
33;42;7
34;42;7
35;42;7
36;42;2
37;42;3
38;42;1
39;42;4
40;42;10
41;42;1
42;42;2
43;42;1
44;42;2
45;42;2
46;42;5
47;42;4
48;42;2
49;42;14
0;43;14
1;43;3
2;43;1
3;43;4
4;43;1
5;43;4
6;43;2
7;43;9
8;43;2
9;43;7
10;43;10
11;43;2
12;43;2
13;43;2
14;43;5
15;43;3
16;43;8
17;43;3
18;43;1
19;43;8
20;43;3
21;43;7
22;43;2
23;43;8
24;43;2
25;43;1
26;43;9
27;43;2
28;43;8
29;43;2
30;43;1
31;43;1
32;43;1
33;43;2
34;43;3
35;43;4
36;43;6
37;43;5
38;43;2
39;43;1
40;43;3
41;43;2
42;43;3
43;43;1
44;43;3
45;43;2
46;43;4
47;43;10
48;43;4
49;43;14
0;44;14
1;44;2
2;44;2
3;44;1
4;44;1
5;44;4
6;44;6
7;44;4
8;44;2
9;44;7
10;44;3
11;44;5
12;44;2
13;44;4
14;44;2
15;44;1
16;44;5
17;44;4
18;44;2
19;44;1
20;44;2
21;44;2
22;44;10
23;44;3
24;44;7
25;44;2
26;44;9
27;44;1
28;44;7
29;44;5
30;44;4
31;44;1
32;44;1
33;44;1
34;44;2
35;44;4
36;44;5
37;44;9
38;44;1
39;44;2
40;44;2
41;44;10
42;44;7
43;44;2
44;44;2
45;44;8
46;44;1
47;44;2
48;44;2
49;44;14
0;45;14
1;45;2
2;45;4
3;45;2
4;45;1
5;45;5
6;45;7
7;45;5
8;45;2
9;45;2
10;45;3
11;45;3
12;45;2
13;45;2
14;45;10
15;45;2
16;45;3
17;45;2
18;45;1
19;45;5
20;45;2
21;45;2
22;45;4
23;45;4
24;45;2
25;45;7
26;45;9
27;45;5
28;45;1
29;45;2
30;45;1
31;45;5
32;45;2
33;45;1
34;45;7
35;45;5
36;45;2
37;45;2
38;45;3
39;45;2
40;45;4
41;45;2
42;45;1
43;45;2
44;45;1
45;45;2
46;45;7
47;45;6
48;45;5
49;45;14
0;46;14
1;46;4
2;46;1
3;46;4
4;46;2
5;46;3
6;46;3
7;46;2
8;46;8
9;46;10
10;46;2
11;46;2
12;46;2
13;46;3
14;46;9
15;46;7
16;46;2
17;46;2
18;46;8
19;46;1
20;46;2
21;46;4
22;46;4
23;46;2
24;46;3
25;46;3
26;46;10
27;46;5
28;46;1
29;46;2
30;46;6
31;46;1
32;46;2
33;46;7
34;46;2
35;46;3
36;46;9
37;46;6
38;46;1
39;46;2
40;46;2
41;46;2
42;46;2
43;46;1
44;46;1
45;46;2
46;46;2
47;46;10
48;46;9
49;46;14
0;47;14
1;47;2
2;47;2
3;47;3
4;47;4
5;47;2
6;47;2
7;47;3
8;47;4
9;47;10
10;47;1
11;47;3
12;47;7
13;47;5
14;47;2
15;47;5
16;47;1
17;47;5
18;47;2
19;47;4
20;47;2
21;47;2
22;47;2
23;47;3
24;47;5
25;47;10
26;47;2
27;47;2
28;47;5
29;47;3
30;47;4
31;47;2
32;47;3
33;47;4
34;47;2
35;47;2
36;47;4
37;47;2
38;47;1
39;47;3
40;47;7
41;47;5
42;47;2
43;47;1
44;47;10
45;47;8
46;47;3
47;47;2
48;47;6
49;47;14
0;48;14
1;48;2
2;48;3
3;48;2
4;48;3
5;48;1
6;48;2
7;48;1
8;48;2
9;48;7
10;48;1
11;48;10
12;48;4
13;48;6
14;48;7
15;48;2
16;48;2
17;48;2
18;48;3
19;48;2
20;48;2
21;48;1
22;48;4
23;48;2
24;48;1
25;48;10
26;48;5
27;48;2
28;48;5
29;48;2
30;48;8
31;48;6
32;48;1
33;48;1
34;48;2
35;48;2
36;48;1
37;48;4
38;48;2
39;48;2
40;48;10
41;48;7
42;48;2
43;48;4
44;48;2
45;48;4
46;48;10
47;48;8
48;48;5
49;48;14
0;49;12
1;49;12
2;49;12
3;49;12
4;49;12
5;49;12
6;49;12
7;49;12
8;49;12
9;49;12
10;49;12
11;49;12
12;49;12
13;49;12
14;49;12
15;49;12
16;49;12
17;49;12
18;49;12
19;49;12
20;49;12
21;49;12
22;49;12
23;49;12
24;49;12
25;49;12
26;49;12
27;49;12
28;49;12
29;49;12
30;49;12
31;49;12
32;49;12
33;49;12
34;49;12
35;49;12
36;49;12
37;49;12
38;49;12
39;49;12
40;49;12
41;49;12
42;49;12
43;49;12
44;49;12
45;49;12
46;49;12
47;49;12
48;49;12
49;49;12
